%YAML 1.1
%TAG !u! tag:unity3d.com,2011:
--- !u!114 &11400000
MonoBehaviour:
  m_ObjectHideFlags: 0
  m_CorrespondingSourceObject: {fileID: 0}
  m_PrefabInstance: {fileID: 0}
  m_PrefabAsset: {fileID: 0}
  m_GameObject: {fileID: 0}
  m_Enabled: 1
  m_EditorHideFlags: 0
  m_Script: {fileID: 11500000, guid: 78ce4102d119e8e4ba8cbec02de5b720, type: 3}
  m_Name: Scene Loader SO
  m_EditorClassIdentifier: 
  gameSceneName: GameScene
  startGameEvent: {fileID: 11400000, guid: f4ed40e15d12c17449b4d2496867fba9, type: 2}
  restartLevelEvent: {fileID: 11400000, guid: f9a8aeeac518c3c47afd9c0327105dac, type: 2}
  quitEvent: {fileID: 11400000, guid: d893a6172268e2f409220eb895564a26, type: 2}
